%YAML 1.1
%TAG !u! tag:unity3d.com,2011:
--- !u!114 &11400000
MonoBehaviour:
  m_ObjectHideFlags: 0
  m_CorrespondingSourceObject: {fileID: 0}
  m_PrefabInstance: {fileID: 0}
  m_PrefabAsset: {fileID: 0}
  m_GameObject: {fileID: 0}
  m_Enabled: 1
  m_EditorHideFlags: 0
  m_Script: {fileID: 11500000, guid: 3f7c27a51094dbf4cb9353f5acbaecde, type: 3}
  m_Name: Player 1
  m_EditorClassIdentifier: 
  playerMaxHP: 3
  speed: 8
  pushSpeed: 6
  damage: 1
  shootingSpeed: 0.2
  bulletSpeed: 13
