%YAML 1.1
%TAG !u! tag:unity3d.com,2011:
--- !u!1 &2008189383577844972
GameObject:
  m_ObjectHideFlags: 0
  m_CorrespondingSourceObject: {fileID: 0}
  m_PrefabInstance: {fileID: 0}
  m_PrefabAsset: {fileID: 0}
  serializedVersion: 6
  m_Component:
  - component: {fileID: 2008189383577844974}
  - component: {fileID: 2008189383577844973}
  m_Layer: 0
  m_Name: PlayerStatsReset
  m_TagString: Untagged
  m_Icon: {fileID: 0}
  m_NavMeshLayer: 0
  m_StaticEditorFlags: 0
  m_IsActive: 1
--- !u!4 &2008189383577844974
Transform:
  m_ObjectHideFlags: 0
  m_CorrespondingSourceObject: {fileID: 0}
  m_PrefabInstance: {fileID: 0}
  m_PrefabAsset: {fileID: 0}
  m_GameObject: {fileID: 2008189383577844972}
  m_LocalRotation: {x: 0, y: 0, z: 0, w: 1}
  m_LocalPosition: {x: 0, y: 0, z: 0}
  m_LocalScale: {x: 1, y: 1, z: 1}
  m_ConstrainProportionsScale: 0
  m_Children: []
  m_Father: {fileID: 0}
  m_RootOrder: 0
  m_LocalEulerAnglesHint: {x: 0, y: 0, z: 0}
--- !u!114 &2008189383577844973
MonoBehaviour:
  m_ObjectHideFlags: 0
  m_CorrespondingSourceObject: {fileID: 0}
  m_PrefabInstance: {fileID: 0}
  m_PrefabAsset: {fileID: 0}
  m_GameObject: {fileID: 2008189383577844972}
  m_Enabled: 1
  m_EditorHideFlags: 0
  m_Script: {fileID: 11500000, guid: cf19fd691cf9eb447a1cbb8654812e92, type: 3}
  m_Name: 
  m_EditorClassIdentifier: 
  startingStats: {fileID: 11400000, guid: 6daa441b491cb0a43b834cb02cb2d8d4, type: 2}
  playerCurrentStats: {fileID: 11400000, guid: d3c87432b5389614fa40b613546f5665, type: 2}
  upgrades: {fileID: 11400000, guid: ea525c60f18890d45abd62ded95a78b1, type: 2}
  gameStats: {fileID: 11400000, guid: 038a6f8e8e881ee4a8935257bd2eaaea, type: 2}
  restartStats: {fileID: 11400000, guid: bbf96d03f30bc4b4c93eb60d65eca0d1, type: 2}
