%YAML 1.1
%TAG !u! tag:unity3d.com,2011:
--- !u!1001 &3640911196960554711
PrefabInstance:
  m_ObjectHideFlags: 0
  serializedVersion: 2
  m_Modification:
    m_TransformParent: {fileID: 0}
    m_Modifications:
    - target: {fileID: 2943365466017881517, guid: 8514ef6b45f2e2a45adebf4ad082a1bc,
        type: 3}
      propertyPath: m_Sprite
      value: 
      objectReference: {fileID: -1439081820, guid: 00cb5fb5a243a38479405ce10e1553e6,
        type: 3}
    - target: {fileID: 3988264945356505840, guid: 8514ef6b45f2e2a45adebf4ad082a1bc,
        type: 3}
      propertyPath: m_Name
      value: Current6
      objectReference: {fileID: 0}
    - target: {fileID: 5208487923139423961, guid: 8514ef6b45f2e2a45adebf4ad082a1bc,
        type: 3}
      propertyPath: m_RootOrder
      value: 0
      objectReference: {fileID: 0}
    - target: {fileID: 5208487923139423961, guid: 8514ef6b45f2e2a45adebf4ad082a1bc,
        type: 3}
      propertyPath: m_LocalPosition.x
      value: 0
      objectReference: {fileID: 0}
    - target: {fileID: 5208487923139423961, guid: 8514ef6b45f2e2a45adebf4ad082a1bc,
        type: 3}
      propertyPath: m_LocalPosition.y
      value: 0
      objectReference: {fileID: 0}
    - target: {fileID: 5208487923139423961, guid: 8514ef6b45f2e2a45adebf4ad082a1bc,
        type: 3}
      propertyPath: m_LocalPosition.z
      value: 0
      objectReference: {fileID: 0}
    - target: {fileID: 5208487923139423961, guid: 8514ef6b45f2e2a45adebf4ad082a1bc,
        type: 3}
      propertyPath: m_LocalRotation.w
      value: 1
      objectReference: {fileID: 0}
    - target: {fileID: 5208487923139423961, guid: 8514ef6b45f2e2a45adebf4ad082a1bc,
        type: 3}
      propertyPath: m_LocalRotation.x
      value: 0
      objectReference: {fileID: 0}
    - target: {fileID: 5208487923139423961, guid: 8514ef6b45f2e2a45adebf4ad082a1bc,
        type: 3}
      propertyPath: m_LocalRotation.y
      value: 0
      objectReference: {fileID: 0}
    - target: {fileID: 5208487923139423961, guid: 8514ef6b45f2e2a45adebf4ad082a1bc,
        type: 3}
      propertyPath: m_LocalRotation.z
      value: 0
      objectReference: {fileID: 0}
    - target: {fileID: 5208487923139423961, guid: 8514ef6b45f2e2a45adebf4ad082a1bc,
        type: 3}
      propertyPath: m_LocalEulerAnglesHint.x
      value: 0
      objectReference: {fileID: 0}
    - target: {fileID: 5208487923139423961, guid: 8514ef6b45f2e2a45adebf4ad082a1bc,
        type: 3}
      propertyPath: m_LocalEulerAnglesHint.y
      value: 0
      objectReference: {fileID: 0}
    - target: {fileID: 5208487923139423961, guid: 8514ef6b45f2e2a45adebf4ad082a1bc,
        type: 3}
      propertyPath: m_LocalEulerAnglesHint.z
      value: 0
      objectReference: {fileID: 0}
    m_RemovedComponents: []
  m_SourcePrefab: {fileID: 100100000, guid: 8514ef6b45f2e2a45adebf4ad082a1bc, type: 3}
