%YAML 1.1
%TAG !u! tag:unity3d.com,2011:
--- !u!1 &1977028642715744630
GameObject:
  m_ObjectHideFlags: 0
  m_CorrespondingSourceObject: {fileID: 0}
  m_PrefabInstance: {fileID: 0}
  m_PrefabAsset: {fileID: 0}
  serializedVersion: 6
  m_Component:
  - component: {fileID: 7242053574199689670}
  - component: {fileID: 161577513472751577}
  m_Layer: 0
  m_Name: RandomBoost
  m_TagString: Untagged
  m_Icon: {fileID: 0}
  m_NavMeshLayer: 0
  m_StaticEditorFlags: 0
  m_IsActive: 1
--- !u!4 &7242053574199689670
Transform:
  m_ObjectHideFlags: 0
  m_CorrespondingSourceObject: {fileID: 0}
  m_PrefabInstance: {fileID: 0}
  m_PrefabAsset: {fileID: 0}
  m_GameObject: {fileID: 1977028642715744630}
  m_LocalRotation: {x: 0, y: 0, z: 0, w: 1}
  m_LocalPosition: {x: 0, y: 0, z: 0}
  m_LocalScale: {x: 1, y: 1, z: 1}
  m_ConstrainProportionsScale: 0
  m_Children:
  - {fileID: 5880083038421662819}
  - {fileID: 8319666527681031679}
  - {fileID: 5036649145786697077}
  m_Father: {fileID: 0}
  m_RootOrder: 0
  m_LocalEulerAnglesHint: {x: 0, y: 0, z: 0}
--- !u!114 &161577513472751577
MonoBehaviour:
  m_ObjectHideFlags: 0
  m_CorrespondingSourceObject: {fileID: 0}
  m_PrefabInstance: {fileID: 0}
  m_PrefabAsset: {fileID: 0}
  m_GameObject: {fileID: 1977028642715744630}
  m_Enabled: 1
  m_EditorHideFlags: 0
  m_Script: {fileID: 11500000, guid: ad2a3c38c081e6546ae27d1c7c7f6f0d, type: 3}
  m_Name: 
  m_EditorClassIdentifier: 
  boostsList:
  - {fileID: 3347687549848077523}
  - {fileID: 908114041472275791}
  - {fileID: 4182408083348749765}
--- !u!1001 &1726450940366023737
PrefabInstance:
  m_ObjectHideFlags: 0
  serializedVersion: 2
  m_Modification:
    m_TransformParent: {fileID: 7242053574199689670}
    m_Modifications:
    - target: {fileID: 332679587719730366, guid: 668ecf6404a913e47877e9835bcc387f,
        type: 3}
      propertyPath: m_Sprite
      value: 
      objectReference: {fileID: -1757595927, guid: 6f9b375fcb44a7e4b93608a32895c5c2,
        type: 3}
    - target: {fileID: 332679587719730366, guid: 668ecf6404a913e47877e9835bcc387f,
        type: 3}
      propertyPath: m_Color.b
      value: 1
      objectReference: {fileID: 0}
    - target: {fileID: 332679587719730366, guid: 668ecf6404a913e47877e9835bcc387f,
        type: 3}
      propertyPath: m_Color.g
      value: 1
      objectReference: {fileID: 0}
    - target: {fileID: 332679587719730366, guid: 668ecf6404a913e47877e9835bcc387f,
        type: 3}
      propertyPath: m_Color.r
      value: 1
      objectReference: {fileID: 0}
    - target: {fileID: 1919685796823548764, guid: 668ecf6404a913e47877e9835bcc387f,
        type: 3}
      propertyPath: m_IsActive
      value: 1
      objectReference: {fileID: 0}
    - target: {fileID: 1977028642715744630, guid: 668ecf6404a913e47877e9835bcc387f,
        type: 3}
      propertyPath: m_Name
      value: ShootingSpeedBoost
      objectReference: {fileID: 0}
    - target: {fileID: 1977028642715744630, guid: 668ecf6404a913e47877e9835bcc387f,
        type: 3}
      propertyPath: m_IsActive
      value: 1
      objectReference: {fileID: 0}
    - target: {fileID: 6861474953091611125, guid: 668ecf6404a913e47877e9835bcc387f,
        type: 3}
      propertyPath: m_LocalScale.x
      value: 1
      objectReference: {fileID: 0}
    - target: {fileID: 6861474953091611125, guid: 668ecf6404a913e47877e9835bcc387f,
        type: 3}
      propertyPath: m_LocalScale.y
      value: 1
      objectReference: {fileID: 0}
    - target: {fileID: 6861474953091611125, guid: 668ecf6404a913e47877e9835bcc387f,
        type: 3}
      propertyPath: m_LocalScale.z
      value: 1
      objectReference: {fileID: 0}
    - target: {fileID: 6861474953091611125, guid: 668ecf6404a913e47877e9835bcc387f,
        type: 3}
      propertyPath: m_ConstrainProportionsScale
      value: 1
      objectReference: {fileID: 0}
    - target: {fileID: 7242053574199689670, guid: 668ecf6404a913e47877e9835bcc387f,
        type: 3}
      propertyPath: m_RootOrder
      value: 1
      objectReference: {fileID: 0}
    - target: {fileID: 7242053574199689670, guid: 668ecf6404a913e47877e9835bcc387f,
        type: 3}
      propertyPath: m_LocalPosition.x
      value: 0
      objectReference: {fileID: 0}
    - target: {fileID: 7242053574199689670, guid: 668ecf6404a913e47877e9835bcc387f,
        type: 3}
      propertyPath: m_LocalPosition.y
      value: 0
      objectReference: {fileID: 0}
    - target: {fileID: 7242053574199689670, guid: 668ecf6404a913e47877e9835bcc387f,
        type: 3}
      propertyPath: m_LocalPosition.z
      value: 0
      objectReference: {fileID: 0}
    - target: {fileID: 7242053574199689670, guid: 668ecf6404a913e47877e9835bcc387f,
        type: 3}
      propertyPath: m_LocalRotation.w
      value: 1
      objectReference: {fileID: 0}
    - target: {fileID: 7242053574199689670, guid: 668ecf6404a913e47877e9835bcc387f,
        type: 3}
      propertyPath: m_LocalRotation.x
      value: 0
      objectReference: {fileID: 0}
    - target: {fileID: 7242053574199689670, guid: 668ecf6404a913e47877e9835bcc387f,
        type: 3}
      propertyPath: m_LocalRotation.y
      value: 0
      objectReference: {fileID: 0}
    - target: {fileID: 7242053574199689670, guid: 668ecf6404a913e47877e9835bcc387f,
        type: 3}
      propertyPath: m_LocalRotation.z
      value: 0
      objectReference: {fileID: 0}
    - target: {fileID: 7242053574199689670, guid: 668ecf6404a913e47877e9835bcc387f,
        type: 3}
      propertyPath: m_LocalEulerAnglesHint.x
      value: 0
      objectReference: {fileID: 0}
    - target: {fileID: 7242053574199689670, guid: 668ecf6404a913e47877e9835bcc387f,
        type: 3}
      propertyPath: m_LocalEulerAnglesHint.y
      value: 0
      objectReference: {fileID: 0}
    - target: {fileID: 7242053574199689670, guid: 668ecf6404a913e47877e9835bcc387f,
        type: 3}
      propertyPath: m_LocalEulerAnglesHint.z
      value: 0
      objectReference: {fileID: 0}
    m_RemovedComponents: []
  m_SourcePrefab: {fileID: 100100000, guid: 668ecf6404a913e47877e9835bcc387f, type: 3}
--- !u!1 &908114041472275791 stripped
GameObject:
  m_CorrespondingSourceObject: {fileID: 1977028642715744630, guid: 668ecf6404a913e47877e9835bcc387f,
    type: 3}
  m_PrefabInstance: {fileID: 1726450940366023737}
  m_PrefabAsset: {fileID: 0}
--- !u!4 &8319666527681031679 stripped
Transform:
  m_CorrespondingSourceObject: {fileID: 7242053574199689670, guid: 668ecf6404a913e47877e9835bcc387f,
    type: 3}
  m_PrefabInstance: {fileID: 1726450940366023737}
  m_PrefabAsset: {fileID: 0}
--- !u!1001 &2406387770397377715
PrefabInstance:
  m_ObjectHideFlags: 0
  serializedVersion: 2
  m_Modification:
    m_TransformParent: {fileID: 7242053574199689670}
    m_Modifications:
    - target: {fileID: 332679587719730366, guid: 18d78076310b67f4792cb48a493320d8,
        type: 3}
      propertyPath: m_Sprite
      value: 
      objectReference: {fileID: -1757595927, guid: 6f9b375fcb44a7e4b93608a32895c5c2,
        type: 3}
    - target: {fileID: 332679587719730366, guid: 18d78076310b67f4792cb48a493320d8,
        type: 3}
      propertyPath: m_Color.b
      value: 1
      objectReference: {fileID: 0}
    - target: {fileID: 332679587719730366, guid: 18d78076310b67f4792cb48a493320d8,
        type: 3}
      propertyPath: m_Color.g
      value: 1
      objectReference: {fileID: 0}
    - target: {fileID: 332679587719730366, guid: 18d78076310b67f4792cb48a493320d8,
        type: 3}
      propertyPath: m_Color.r
      value: 1
      objectReference: {fileID: 0}
    - target: {fileID: 1919685796823548764, guid: 18d78076310b67f4792cb48a493320d8,
        type: 3}
      propertyPath: m_IsActive
      value: 1
      objectReference: {fileID: 0}
    - target: {fileID: 1977028642715744630, guid: 18d78076310b67f4792cb48a493320d8,
        type: 3}
      propertyPath: m_Name
      value: TripleShotBoost
      objectReference: {fileID: 0}
    - target: {fileID: 1977028642715744630, guid: 18d78076310b67f4792cb48a493320d8,
        type: 3}
      propertyPath: m_IsActive
      value: 1
      objectReference: {fileID: 0}
    - target: {fileID: 6861474953091611125, guid: 18d78076310b67f4792cb48a493320d8,
        type: 3}
      propertyPath: m_LocalScale.x
      value: 1
      objectReference: {fileID: 0}
    - target: {fileID: 6861474953091611125, guid: 18d78076310b67f4792cb48a493320d8,
        type: 3}
      propertyPath: m_LocalScale.y
      value: 1
      objectReference: {fileID: 0}
    - target: {fileID: 6861474953091611125, guid: 18d78076310b67f4792cb48a493320d8,
        type: 3}
      propertyPath: m_LocalScale.z
      value: 1
      objectReference: {fileID: 0}
    - target: {fileID: 6861474953091611125, guid: 18d78076310b67f4792cb48a493320d8,
        type: 3}
      propertyPath: m_ConstrainProportionsScale
      value: 1
      objectReference: {fileID: 0}
    - target: {fileID: 7242053574199689670, guid: 18d78076310b67f4792cb48a493320d8,
        type: 3}
      propertyPath: m_RootOrder
      value: 2
      objectReference: {fileID: 0}
    - target: {fileID: 7242053574199689670, guid: 18d78076310b67f4792cb48a493320d8,
        type: 3}
      propertyPath: m_LocalPosition.x
      value: 0
      objectReference: {fileID: 0}
    - target: {fileID: 7242053574199689670, guid: 18d78076310b67f4792cb48a493320d8,
        type: 3}
      propertyPath: m_LocalPosition.y
      value: 0
      objectReference: {fileID: 0}
    - target: {fileID: 7242053574199689670, guid: 18d78076310b67f4792cb48a493320d8,
        type: 3}
      propertyPath: m_LocalPosition.z
      value: 0
      objectReference: {fileID: 0}
    - target: {fileID: 7242053574199689670, guid: 18d78076310b67f4792cb48a493320d8,
        type: 3}
      propertyPath: m_LocalRotation.w
      value: 1
      objectReference: {fileID: 0}
    - target: {fileID: 7242053574199689670, guid: 18d78076310b67f4792cb48a493320d8,
        type: 3}
      propertyPath: m_LocalRotation.x
      value: 0
      objectReference: {fileID: 0}
    - target: {fileID: 7242053574199689670, guid: 18d78076310b67f4792cb48a493320d8,
        type: 3}
      propertyPath: m_LocalRotation.y
      value: 0
      objectReference: {fileID: 0}
    - target: {fileID: 7242053574199689670, guid: 18d78076310b67f4792cb48a493320d8,
        type: 3}
      propertyPath: m_LocalRotation.z
      value: 0
      objectReference: {fileID: 0}
    - target: {fileID: 7242053574199689670, guid: 18d78076310b67f4792cb48a493320d8,
        type: 3}
      propertyPath: m_LocalEulerAnglesHint.x
      value: 0
      objectReference: {fileID: 0}
    - target: {fileID: 7242053574199689670, guid: 18d78076310b67f4792cb48a493320d8,
        type: 3}
      propertyPath: m_LocalEulerAnglesHint.y
      value: 0
      objectReference: {fileID: 0}
    - target: {fileID: 7242053574199689670, guid: 18d78076310b67f4792cb48a493320d8,
        type: 3}
      propertyPath: m_LocalEulerAnglesHint.z
      value: 0
      objectReference: {fileID: 0}
    m_RemovedComponents: []
  m_SourcePrefab: {fileID: 100100000, guid: 18d78076310b67f4792cb48a493320d8, type: 3}
--- !u!1 &4182408083348749765 stripped
GameObject:
  m_CorrespondingSourceObject: {fileID: 1977028642715744630, guid: 18d78076310b67f4792cb48a493320d8,
    type: 3}
  m_PrefabInstance: {fileID: 2406387770397377715}
  m_PrefabAsset: {fileID: 0}
--- !u!4 &5036649145786697077 stripped
Transform:
  m_CorrespondingSourceObject: {fileID: 7242053574199689670, guid: 18d78076310b67f4792cb48a493320d8,
    type: 3}
  m_PrefabInstance: {fileID: 2406387770397377715}
  m_PrefabAsset: {fileID: 0}
--- !u!1001 &3826565471061769637
PrefabInstance:
  m_ObjectHideFlags: 0
  serializedVersion: 2
  m_Modification:
    m_TransformParent: {fileID: 7242053574199689670}
    m_Modifications:
    - target: {fileID: 332679587719730366, guid: c7b27bef592eeef4d9aa4290abcd51af,
        type: 3}
      propertyPath: m_Sprite
      value: 
      objectReference: {fileID: -1757595927, guid: 6f9b375fcb44a7e4b93608a32895c5c2,
        type: 3}
    - target: {fileID: 1919685796823548764, guid: c7b27bef592eeef4d9aa4290abcd51af,
        type: 3}
      propertyPath: m_IsActive
      value: 1
      objectReference: {fileID: 0}
    - target: {fileID: 1977028642715744630, guid: c7b27bef592eeef4d9aa4290abcd51af,
        type: 3}
      propertyPath: m_Name
      value: DamageBoost
      objectReference: {fileID: 0}
    - target: {fileID: 1977028642715744630, guid: c7b27bef592eeef4d9aa4290abcd51af,
        type: 3}
      propertyPath: m_IsActive
      value: 1
      objectReference: {fileID: 0}
    - target: {fileID: 6861474953091611125, guid: c7b27bef592eeef4d9aa4290abcd51af,
        type: 3}
      propertyPath: m_LocalScale.x
      value: 1
      objectReference: {fileID: 0}
    - target: {fileID: 6861474953091611125, guid: c7b27bef592eeef4d9aa4290abcd51af,
        type: 3}
      propertyPath: m_LocalScale.y
      value: 1
      objectReference: {fileID: 0}
    - target: {fileID: 6861474953091611125, guid: c7b27bef592eeef4d9aa4290abcd51af,
        type: 3}
      propertyPath: m_LocalScale.z
      value: 1
      objectReference: {fileID: 0}
    - target: {fileID: 6861474953091611125, guid: c7b27bef592eeef4d9aa4290abcd51af,
        type: 3}
      propertyPath: m_ConstrainProportionsScale
      value: 1
      objectReference: {fileID: 0}
    - target: {fileID: 7242053574199689670, guid: c7b27bef592eeef4d9aa4290abcd51af,
        type: 3}
      propertyPath: m_RootOrder
      value: 0
      objectReference: {fileID: 0}
    - target: {fileID: 7242053574199689670, guid: c7b27bef592eeef4d9aa4290abcd51af,
        type: 3}
      propertyPath: m_LocalPosition.x
      value: 0
      objectReference: {fileID: 0}
    - target: {fileID: 7242053574199689670, guid: c7b27bef592eeef4d9aa4290abcd51af,
        type: 3}
      propertyPath: m_LocalPosition.y
      value: 0
      objectReference: {fileID: 0}
    - target: {fileID: 7242053574199689670, guid: c7b27bef592eeef4d9aa4290abcd51af,
        type: 3}
      propertyPath: m_LocalPosition.z
      value: 0
      objectReference: {fileID: 0}
    - target: {fileID: 7242053574199689670, guid: c7b27bef592eeef4d9aa4290abcd51af,
        type: 3}
      propertyPath: m_LocalRotation.w
      value: 1
      objectReference: {fileID: 0}
    - target: {fileID: 7242053574199689670, guid: c7b27bef592eeef4d9aa4290abcd51af,
        type: 3}
      propertyPath: m_LocalRotation.x
      value: 0
      objectReference: {fileID: 0}
    - target: {fileID: 7242053574199689670, guid: c7b27bef592eeef4d9aa4290abcd51af,
        type: 3}
      propertyPath: m_LocalRotation.y
      value: 0
      objectReference: {fileID: 0}
    - target: {fileID: 7242053574199689670, guid: c7b27bef592eeef4d9aa4290abcd51af,
        type: 3}
      propertyPath: m_LocalRotation.z
      value: 0
      objectReference: {fileID: 0}
    - target: {fileID: 7242053574199689670, guid: c7b27bef592eeef4d9aa4290abcd51af,
        type: 3}
      propertyPath: m_LocalEulerAnglesHint.x
      value: 0
      objectReference: {fileID: 0}
    - target: {fileID: 7242053574199689670, guid: c7b27bef592eeef4d9aa4290abcd51af,
        type: 3}
      propertyPath: m_LocalEulerAnglesHint.y
      value: 0
      objectReference: {fileID: 0}
    - target: {fileID: 7242053574199689670, guid: c7b27bef592eeef4d9aa4290abcd51af,
        type: 3}
      propertyPath: m_LocalEulerAnglesHint.z
      value: 0
      objectReference: {fileID: 0}
    m_RemovedComponents: []
  m_SourcePrefab: {fileID: 100100000, guid: c7b27bef592eeef4d9aa4290abcd51af, type: 3}
--- !u!1 &3347687549848077523 stripped
GameObject:
  m_CorrespondingSourceObject: {fileID: 1977028642715744630, guid: c7b27bef592eeef4d9aa4290abcd51af,
    type: 3}
  m_PrefabInstance: {fileID: 3826565471061769637}
  m_PrefabAsset: {fileID: 0}
--- !u!4 &5880083038421662819 stripped
Transform:
  m_CorrespondingSourceObject: {fileID: 7242053574199689670, guid: c7b27bef592eeef4d9aa4290abcd51af,
    type: 3}
  m_PrefabInstance: {fileID: 3826565471061769637}
  m_PrefabAsset: {fileID: 0}
