%YAML 1.1
%TAG !u! tag:unity3d.com,2011:
--- !u!114 &11400000
MonoBehaviour:
  m_ObjectHideFlags: 0
  m_CorrespondingSourceObject: {fileID: 0}
  m_PrefabInstance: {fileID: 0}
  m_PrefabAsset: {fileID: 0}
  m_GameObject: {fileID: 0}
  m_Enabled: 1
  m_EditorHideFlags: 0
  m_Script: {fileID: 11500000, guid: a368adca52d4bcf4fb3bcb76289ae7d5, type: 3}
  m_Name: Boss_2
  m_EditorClassIdentifier: 
  enemyName: Boss2
  hpMax: 200
  moveSpeed: 0
  sicknessRise: 0
  sicknessIfNotKilled: 0
  damageOnTouch: 1
  betweenDamageTime: 1
  shootSpeed: 0.5
  bulletSpeed: 10
